TNT-89CB1X98ASB1PXASG1O,ME-C09861BXASCT10XA,ipv4,CFG-RA01BXASY95YU,SFDC,["10.210.172.0:255.255.192.0"\,"10.211.172.0:255.255.192.0"],
TNT-89CB1X98ASB1PXASG1O,ME-TYNCASQTC07CSNYS,ipv4,CFG-KCO1VTXASGBL7,AWSUS-West,["50.112.0.0/16"\,"52.8.0.0/16"\,"52.9.0.0/16"],
TNT-89CB1X98ASB1PXASG1O,ME-V051XASVV061XSGJ,ipv4,CFG-VPCAXKS16XAS9,App Cluster,["10.128.0.0:255.128.0.0"\,"10.129.0.0:255.128.0.0"\,"10.130.0.0:255.128.0.0"],
TNT-89CB1X98ASB1PXASG1O,ME-V0891XASV1096XAS,ipv4,CFG-BUBX7SQ6CBS07,Corp HQ,,["10.[100-199].242.*"]
TNT-89CB1X98ASB1PXASG1O,ME-V986D1BXASUI16XA,ipv4,CFG-MAUYE8ASY95YU,NYDC,["10.240.172.0:255.255.192.0"\,"10.241.172.0:255.255.192.0"],
TNT-89CB1X98ASB1PXASG1O,ME-VC98XABSB19XCASH,ipv4,CFG-VCOHVTXAS107C,AWSUS-East,["23.20.0.0/14"\,"50.16.0.0/15"\,"50.19.0.0/16"],
